{
    "modules": [
        {
            "config": {
                "position": [
                    187,
                    137
                ]
            },
            "name": "New Model Object",
            "value": {
                "actionGroup": {
                    "_default0_list": true,
                    "_default1_show": false,
                    "_default2_new_create": false,
                    "_default3_edit_update": false,
                    "_default4_delete": false,
                    "customActions": []
                },
                "name": "SocialStream",
                "objectsettings": {
                    "addDeletedField": true,
                    "addHiddenField": true,
                    "addStarttimeEndtimeFields": true,
                    "aggregateRoot": true,
                    "categorizable": false,
                    "description": "",
                    "mapToTable": "",
                    "parentClass": "",
                    "sorting": false,
                    "type": "Entity",
                    "uid": "1130929631648"
                },
                "propertyGroup": {
                    "properties": []
                },
                "relationGroup": {
                    "relations": []
                }
            }
        }
    ],
    "properties": {
        "backendModules": [],
        "description": "",
        "emConf": {
            "category": "plugin",
            "custom_category": "",
            "dependsOn": "typo3 => 7.6.0-7.6.99\n",
            "disableLocalization": false,
            "disableVersioning": false,
            "skipGenerateDocumentationTemplate": false,
            "sourceLanguage": "en",
            "state": "alpha",
            "targetVersion": "7.6.0-7.6.99",
            "version": "0.0.1"
        },
        "extensionKey": "teufels_social_stream",
        "name": "teufels_social_stream",
        "originalExtensionKey": "teufels_social_stream",
        "originalVendorName": "TEUFELS",
        "persons": [
            {
                "company": "teufels GmbH",
                "email": "a.hafner@teufels.com",
                "name": "Andreas Hafner",
                "role": "Developer"
            },
            {
                "company": "teufels GmbH",
                "email": "d.hilser@teufels.com",
                "name": "Dominik Hilser",
                "role": "Developer"
            },
            {
                "company": "teufels GmbH",
                "email": "g.kathan@teufels.com",
                "name": "Georg Kathan",
                "role": "Developer"
            },
            {
                "company": "teufels GmbH",
                "email": "h.krueger@teufels.com",
                "name": "Hendrik Kr\u00fcger",
                "role": "Developer"
            },
            {
                "company": "teufels GmbH",
                "email": "j.rodriguez@teufels.com",
                "name": "Josymar Escalona Rodriguez",
                "role": "Developer"
            },
            {
                "company": "teufels GmbH",
                "email": "p.ennen@teufels.com",
                "name": "Perrin Ennen",
                "role": "Developer"
            },
            {
                "company": "teufels GmbH",
                "email": "t.bittner@teufels.com",
                "name": "Timo Bittner",
                "role": "Developer"
            }
        ],
        "plugins": [
            {
                "actions": {
                    "controllerActionCombinations": "SocialStream => list",
                    "noncacheableActions": "SocialStream => list",
                    "switchableActions": ""
                },
                "key": "socialstream",
                "name": "SocialStream"
            }
        ],
        "vendorName": "TEUFELS"
    },
    "wires": [],
    "log": {
        "last_modified": "2017-02-01 09:15",
        "extension_builder_version": "7.6.0",
        "be_user": " (1)"
    }
}